%YAML 1.1
%TAG !u! tag:unity3d.com,2011:
--- !u!114 &11400000
MonoBehaviour:
  m_ObjectHideFlags: 0
  m_CorrespondingSourceObject: {fileID: 0}
  m_PrefabInstance: {fileID: 0}
  m_PrefabAsset: {fileID: 0}
  m_GameObject: {fileID: 0}
  m_Enabled: 1
  m_EditorHideFlags: 0
  m_Script: {fileID: 11500000, guid: d20eecb271e766847b88897890b02d83, type: 3}
  m_Name: playerTest
  m_EditorClassIdentifier: 
  playerPrefab: {fileID: 8132841213032962968, guid: e047cd7cd587e4549acc0f48cbd864ac, type: 3}
  hitPoints: 3
  damage: 3
  mobility: 1.2
  attackSpeed: 2
