%YAML 1.1
%TAG !u! tag:unity3d.com,2011:
--- !u!1 &4034874511394077976
GameObject:
  m_ObjectHideFlags: 0
  m_CorrespondingSourceObject: {fileID: 0}
  m_PrefabInstance: {fileID: 0}
  m_PrefabAsset: {fileID: 0}
  serializedVersion: 6
  m_Component:
  - component: {fileID: 4034874511394077975}
  - component: {fileID: 4034874511394077974}
  - component: {fileID: 4034874511394077977}
  - component: {fileID: 2080908158}
  m_Layer: 7
  m_Name: RewardRoom
  m_TagString: Untagged
  m_Icon: {fileID: 0}
  m_NavMeshLayer: 0
  m_StaticEditorFlags: 0
  m_IsActive: 1
--- !u!4 &4034874511394077975
Transform:
  m_ObjectHideFlags: 0
  m_CorrespondingSourceObject: {fileID: 0}
  m_PrefabInstance: {fileID: 0}
  m_PrefabAsset: {fileID: 0}
  m_GameObject: {fileID: 4034874511394077976}
  m_LocalRotation: {x: 0, y: 0, z: 0, w: 1}
  m_LocalPosition: {x: -33.7, y: 0.97, z: 41.74}
  m_LocalScale: {x: 1, y: 1, z: 1}
  m_Children: []
  m_Father: {fileID: 0}
  m_RootOrder: 0
  m_LocalEulerAnglesHint: {x: 0, y: 0, z: 0}
--- !u!65 &4034874511394077974
BoxCollider:
  m_ObjectHideFlags: 0
  m_CorrespondingSourceObject: {fileID: 0}
  m_PrefabInstance: {fileID: 0}
  m_PrefabAsset: {fileID: 0}
  m_GameObject: {fileID: 4034874511394077976}
  m_Material: {fileID: 0}
  m_IsTrigger: 1
  m_Enabled: 1
  serializedVersion: 2
  m_Size: {x: 7.8170147, y: 1, z: 7.5541344}
  m_Center: {x: 2.0914927, y: 0, z: 1.8879089}
--- !u!114 &4034874511394077977
MonoBehaviour:
  m_ObjectHideFlags: 0
  m_CorrespondingSourceObject: {fileID: 0}
  m_PrefabInstance: {fileID: 0}
  m_PrefabAsset: {fileID: 0}
  m_GameObject: {fileID: 4034874511394077976}
  m_Enabled: 1
  m_EditorHideFlags: 0
  m_Script: {fileID: 11500000, guid: 043b7b99fb4851247baf34fd2dbf9417, type: 3}
  m_Name: 
  m_EditorClassIdentifier: 
  uiRewardScreen: {fileID: 0}
  activePlayers: []
--- !u!114 &2080908158
MonoBehaviour:
  m_ObjectHideFlags: 0
  m_CorrespondingSourceObject: {fileID: 0}
  m_PrefabInstance: {fileID: 0}
  m_PrefabAsset: {fileID: 0}
  m_GameObject: {fileID: 4034874511394077976}
  m_Enabled: 1
  m_EditorHideFlags: 0
  m_Script: {fileID: 11500000, guid: 4bb165d8d958d35469f6f7bbf75bd63e, type: 3}
  m_Name: 
  m_EditorClassIdentifier: 
  dialogue:
    name: LEVEL COMPLETE
    sentences:
    - You have completed the level
    - Good job.
