%YAML 1.1
%TAG !u! tag:unity3d.com,2011:
--- !u!114 &-1904949716334665851
MonoBehaviour:
  m_ObjectHideFlags: 11
  m_CorrespondingSourceObject: {fileID: 0}
  m_PrefabInstance: {fileID: 0}
  m_PrefabAsset: {fileID: 0}
  m_GameObject: {fileID: 0}
  m_Enabled: 1
  m_EditorHideFlags: 0
  m_Script: {fileID: 11500000, guid: d0353a89b1f911e48b9e16bdc9f2e058, type: 3}
  m_Name: 
  m_EditorClassIdentifier: 
  version: 4
--- !u!21 &2100000
Material:
  serializedVersion: 6
  m_ObjectHideFlags: 0
  m_CorrespondingSourceObject: {fileID: 0}
  m_PrefabInstance: {fileID: 0}
  m_PrefabAsset: {fileID: 0}
  m_Name: 1 SKIN-DARKEST
  m_Shader: {fileID: 4800000, guid: 933532a4fcc9baf4fa0491de14d08ed7, type: 3}
  m_ShaderKeywords: _SHADING_FLAT _WAVES_HIGHQUALITY _ZWRITE_ON
  m_LightmapFlags: 4
  m_EnableInstancingVariants: 0
  m_DoubleSidedGI: 0
  m_CustomRenderQueue: 2000
  stringTagMap:
    RenderType: Opaque
  disabledShaderPasses: []
  m_SavedProperties:
    serializedVersion: 3
    m_TexEnvs:
    - _BaseMap:
        m_Texture: {fileID: 0}
        m_Scale: {x: 1, y: 1}
        m_Offset: {x: 0, y: 0}
    - _BumpMap:
        m_Texture: {fileID: 0}
        m_Scale: {x: 1, y: 1}
        m_Offset: {x: 0, y: 0}
    - _BumpTex:
        m_Texture: {fileID: 2800000, guid: 5172883f19560c34db24c164f824d406, type: 3}
        m_Scale: {x: 1, y: 1}
        m_Offset: {x: 0, y: 0}
    - _DetailAlbedoMap:
        m_Texture: {fileID: 0}
        m_Scale: {x: 1, y: 1}
        m_Offset: {x: 0, y: 0}
    - _DetailMask:
        m_Texture: {fileID: 0}
        m_Scale: {x: 1, y: 1}
        m_Offset: {x: 0, y: 0}
    - _DetailNormalMap:
        m_Texture: {fileID: 0}
        m_Scale: {x: 1, y: 1}
        m_Offset: {x: 0, y: 0}
    - _EmissionMap:
        m_Texture: {fileID: 0}
        m_Scale: {x: 1, y: 1}
        m_Offset: {x: 0, y: 0}
    - _FresnelTex:
        m_Texture: {fileID: 2800000, guid: bbe71c065be7eca47b24d1e03bf041b3, type: 3}
        m_Scale: {x: 1, y: 1}
        m_Offset: {x: 0, y: 0}
    - _MainTex:
        m_Texture: {fileID: 0}
        m_Scale: {x: 1, y: 1}
        m_Offset: {x: 0, y: 0}
    - _MetallicGlossMap:
        m_Texture: {fileID: 0}
        m_Scale: {x: 1, y: 1}
        m_Offset: {x: 0, y: 0}
    - _NoiseTex:
        m_Texture: {fileID: 2800000, guid: 6a1c221a7d11eaa4e875ae74a888d906, type: 3}
        m_Scale: {x: 1, y: 1}
        m_Offset: {x: 0, y: 0}
    - _OcclusionMap:
        m_Texture: {fileID: 0}
        m_Scale: {x: 1, y: 1}
        m_Offset: {x: 0, y: 0}
    - _ParallaxMap:
        m_Texture: {fileID: 0}
        m_Scale: {x: 1, y: 1}
        m_Offset: {x: 0, y: 0}
    - _ReflectionTex:
        m_Texture: {fileID: 0}
        m_Scale: {x: 1, y: 1}
        m_Offset: {x: 0, y: 0}
    - _RefractionTex:
        m_Texture: {fileID: 0}
        m_Scale: {x: 1, y: 1}
        m_Offset: {x: 0, y: 0}
    - _SpecGlossMap:
        m_Texture: {fileID: 0}
        m_Scale: {x: 1, y: 1}
        m_Offset: {x: 0, y: 0}
    - unity_Lightmaps:
        m_Texture: {fileID: 0}
        m_Scale: {x: 1, y: 1}
        m_Offset: {x: 0, y: 0}
    - unity_LightmapsInd:
        m_Texture: {fileID: 0}
        m_Scale: {x: 1, y: 1}
        m_Offset: {x: 0, y: 0}
    - unity_ShadowMasks:
        m_Texture: {fileID: 0}
        m_Scale: {x: 1, y: 1}
        m_Offset: {x: 0, y: 0}
    m_Floats:
    - _Absorption: 5
    - _AlphaClip: 0
    - _Blend: 0
    - _BumpScale: 1
    - _BumpScale_: 1
    - _BumpSpeed: 0.2
    - _ClearCoatMask: 0
    - _ClearCoatSmoothness: 0
    - _Cull: 0
    - _Cull_: 2
    - _Cutoff: 0.5
    - _DetailAlbedoMapScale: 1
    - _DetailNormalMapScale: 1
    - _Diffuse: 0.5
    - _Direction: 180
    - _Distort: 0
    - _Distortion: 1
    - _DstBlend: 0
    - _EdgeBlend: 0
    - _EnableShadows: 0
    - _EnvironmentReflections: 1
    - _FoamScale: 20
    - _FoamSpeed: 0.3
    - _FoamSpread: 1
    - _FresPower: 1.5
    - _Gloss: 0.6
    - _GlossMapScale: 1
    - _Glossiness: 0
    - _GlossyReflections: 1
    - _HQFoam: 0
    - _Height: 0.5
    - _Height_: 0.5
    - _Length: 4
    - _LightAbs: 0
    - _Metallic: 0
    - _Mode: 0
    - _NormalOffset: 1
    - _OcclusionStrength: 1
    - _Opacity: 0.7
    - _Parallax: 0.02
    - _PointLights: 0
    - _QueueOffset: 0
    - _RHeight: 0.25
    - _RHeight_: 0.25
    - _RSpeed: 1
    - _RSpeed_: 1
    - _ReceiveShadows: 1
    - _Reflection: 1.2
    - _Refraction: 2
    - _Scale: 1
    - _Scale_: 1
    - _Shading: 0
    - _Shadow: 0.7
    - _ShoreDistance: 0.5
    - _ShoreIntensity: 1
    - _Smoothness: 0
    - _SmoothnessTextureChannel: 0
    - _Specular: 70
    - _SpecularHighlights: 1
    - _Speed: 0.5
    - _Speed_: 0.5
    - _SrcBlend: 1
    - _Steepness: 0.2
    - _Stretch: 10
    - _Surface: 0
    - _TexSize_: 64
    - _Time_: 0
    - _TransformScale_: 1
    - _UVSec: 0
    - _Waves: 2
    - _WorkflowMode: 1
    - _ZWrite: 1
    m_Colors:
    - _BaseColor: {r: 0.27450982, g: 0.17254902, b: 0.23921569, a: 1}
    - _Color: {r: 0.27450982, g: 0.17254902, b: 0.23921569, a: 1}
    - _DeepColor: {r: 0, g: 0.1, b: 0.2, a: 1}
    - _Direction_: {r: -1, g: -0.00000008742278, b: -0.8, a: -0.000000069938224}
    - _EmissionColor: {r: 0, g: 0, b: 0, a: 1}
    - _FresColor: {r: 0.305, g: 0.371, b: 0.395, a: 1}
    - _ShoreColor: {r: 1, g: 1, b: 1, a: 1}
    - _SpecColor: {r: 0.07352942, g: 0.07352942, b: 0.07352942, a: 1}
    - _Sun: {r: 0, g: 0, b: 0, a: 0}
    - _SunColor: {r: 1, g: 1, b: 1, a: 1}
  m_BuildTextureStacks: []
