%YAML 1.1
%TAG !u! tag:unity3d.com,2011:
--- !u!114 &11400000
MonoBehaviour:
  m_ObjectHideFlags: 0
  m_CorrespondingSourceObject: {fileID: 0}
  m_PrefabInstance: {fileID: 0}
  m_PrefabAsset: {fileID: 0}
  m_GameObject: {fileID: 0}
  m_Enabled: 1
  m_EditorHideFlags: 0
  m_Script: {fileID: 11500000, guid: da82bd5f589dea244b6fcc8b9ca8ed78, type: 3}
  m_Name: Medkit
  m_EditorClassIdentifier: 
  itemPrefab: {fileID: 1535748476627388, guid: 6d5584c9b336d4bc99a9a859b9a76aa7, type: 3}
  damage: 0
  healing: 5
  weaponName: null
  isThrowable: 0
  objectPoolNumber: 4
