%YAML 1.1
%TAG !u! tag:unity3d.com,2011:
--- !u!114 &11400000
MonoBehaviour:
  m_ObjectHideFlags: 0
  m_CorrespondingSourceObject: {fileID: 0}
  m_PrefabInstance: {fileID: 0}
  m_PrefabAsset: {fileID: 0}
  m_GameObject: {fileID: 0}
  m_Enabled: 1
  m_EditorHideFlags: 0
  m_Script: {fileID: 11500000, guid: da82bd5f589dea244b6fcc8b9ca8ed78, type: 3}
  m_Name: ThrowingWep
  m_EditorClassIdentifier: 
  itemPrefab: {fileID: 8253303041307462455, guid: d4983a817c505a249817de6ef0fa580f, type: 3}
  damage: 4
  healing: 0
  weaponName: null
  isThrowable: 1
  objectPoolNumber: 3
