%YAML 1.1
%TAG !u! tag:unity3d.com,2011:
--- !u!114 &11400000
MonoBehaviour:
  m_ObjectHideFlags: 0
  m_CorrespondingSourceObject: {fileID: 0}
  m_PrefabInstance: {fileID: 0}
  m_PrefabAsset: {fileID: 0}
  m_GameObject: {fileID: 0}
  m_Enabled: 1
  m_EditorHideFlags: 0
  m_Script: {fileID: 11500000, guid: afacb5b54ad0f8f47bbcba63e940691d, type: 3}
  m_Name: Boss
  m_EditorClassIdentifier: 
  enemyPrefab: {fileID: 6266283989898848208, guid: 9abde6e7031205048973e79b68d38194, type: 3}
  hitPoints: 40
  damage: 1
  mobility: 2
  attackSpeed: 5
  aggroRange: 1
  characterMat: {fileID: 2100000, guid: 07fbeafce7cb7124f83075b85e34470c, type: 2}
