%YAML 1.1
%TAG !u! tag:unity3d.com,2011:
--- !u!114 &11400000
MonoBehaviour:
  m_ObjectHideFlags: 0
  m_CorrespondingSourceObject: {fileID: 0}
  m_PrefabInstance: {fileID: 0}
  m_PrefabAsset: {fileID: 0}
  m_GameObject: {fileID: 0}
  m_Enabled: 1
  m_EditorHideFlags: 0
  m_Script: {fileID: 11500000, guid: afacb5b54ad0f8f47bbcba63e940691d, type: 3}
  m_Name: Doctor
  m_EditorClassIdentifier: 
  enemyPrefab: {fileID: 6266283989898848208, guid: 9c71210c9c6071c41a36735eb021fba7, type: 3}
  hitPoints: 25
  damage: 3
  mobility: 3
  attackSpeed: 2
  aggroRange: 5
  characterMat: {fileID: 2100000, guid: 02075b3f8ca23524dad389abbae12438, type: 2}
